{
  "name": "product_review",
  "base": "PersistedModel",
  "idInjection": true,
  "options": {
    "validateUpsert": true
  },
  "properties": {
    "user_id": {
      "type": "number",
      "required": true
    },
    "content": {
      "type": "string",
      "required": true
    },
    "date": {
      "type": "date",
      "require": false
    }
  },
  "validations": [],
  "relations": {},
  "acls": [],
  "methods": {}
}
